Division,WeightClassKg,Place,Name,Team,BodyweightKg,Best3SquatKg,Best3BenchKg,Best3DeadliftKg,TotalKg,Equipment,Event,Sex
Boys,51.71,1,Jacob Brown,Livingston,49.9,83.91,43.09,120.2,247.21,Single-ply,SBD,M
Boys,51.71,2,Quivion Horton,Livingston,47.17,70.31,43.09,92.99,206.38,Single-ply,SBD,M
Boys,51.71,3,Jeremiah Salazar,Cleveland,49.44,79.38,45.36,77.11,201.85,Single-ply,SBD,M
Boys,55.79,1,Mykal Vera,Corrigan-Camden,55.57,151.95,74.84,151.95,378.75,Single-ply,SBD,M
Boys,55.79,2,Jaren Santoyo,Corrigan-Camden,52.62,92.99,54.43,115.67,263.08,Single-ply,SBD,M
Boys,55.79,DQ,Rojae Kizzee,Trinity,55.79,,,,,Single-ply,SBD,M
Boys,59.87,1,Ethan Torres,New Caney,58.29,174.63,88.45,156.49,419.57,Single-ply,SBD,M
Boys,59.87,2,Oscar Puente,New Caney,58.97,140.61,97.52,158.76,396.89,Single-ply,SBD,M
Boys,59.87,3,Dario Santillan,New Caney,58.06,131.54,95.25,145.15,371.95,Single-ply,SBD,M
Boys,59.87,4,Mason Walker,Livingston,59.87,142.88,70.31,140.61,353.8,Single-ply,SBD,M
Boys,59.87,DQ,Zachary Kreg,Livingston,59.42,199.58,,,,Single-ply,SBD,M
Boys,59.87,DQ,Aundrea Holmes,Trinity,59.87,,,,,Single-ply,SBD,M
Boys,67.13,1,Justin Legg,Livingston,66.45,188.24,102.06,192.78,483.08,Single-ply,SBD,M
Boys,67.13,2,Jesús Flores,Corrigan-Camden,60.78,142.88,74.84,145.15,362.87,Single-ply,SBD,M
Boys,67.13,3,Christian Marines,Pollok Central,61.23,120.2,74.84,133.81,328.85,Single-ply,SBD,M
Boys,67.13,4,Anthony Gonzales,Cleveland,61.46,111.13,65.77,129.27,306.17,Single-ply,SBD,M
Boys,67.13,5,Jeremias Mendez,Cleveland,61.23,111.13,63.5,124.74,299.37,Single-ply,SBD,M
Boys,67.13,6,Garrett Rice,Pollok Central,62.37,56.7,34.02,97.52,188.24,Single-ply,SBD,M
Boys,67.13,DQ,Trey Goodman,Trinity,67.13,,,,,Single-ply,SBD,M
Boys,74.84,1,Kobi Poage,Corrigan-Camden,73.48,165.56,108.86,188.24,462.66,Single-ply,SBD,M
Boys,74.84,2,Jesse Wilson,Pollok Central,74.16,156.49,92.99,174.63,424.11,Single-ply,SBD,M
Boys,74.84,3,Osvealdo Reta,Cleveland,68.49,156.49,83.91,161.03,401.43,Single-ply,SBD,M
Boys,74.84,4,Richard Broooks,Livingston,73.48,124.74,70.31,165.56,360.61,Single-ply,SBD,M
Boys,74.84,5,Mills Brayden,New Caney,70.99,97.52,61.23,106.59,265.35,Single-ply,SBD,M
Boys,74.84,DQ,Jamarian Hall,Trinity,74.84,,,,,Single-ply,SBD,M
Boys,82.1,1,Justin McAlpin,New Caney,81.65,158.76,113.4,181.44,453.59,Single-ply,SBD,M
Boys,82.1,2,Marco Martínez,Corrigan-Camden,79.15,174.63,79.38,151.95,405.97,Single-ply,SBD,M
Boys,82.1,3,Austin Massinggill,Pollok Central,76.2,122.47,81.65,145.15,349.27,Single-ply,SBD,M
Boys,82.1,4,Aj Pecina,Cleveland,80.29,111.13,70.31,111.13,292.57,Single-ply,SBD,M
Boys,82.1,5,Kyle Coleman,Pollok Central,79.38,88.45,56.7,117.93,263.08,Single-ply,SBD,M
Boys,89.81,1,Alan Casper,Corrigan-Camden,86.41,229.06,113.4,204.12,546.58,Single-ply,SBD,M
Boys,89.81,2,Nick Ochoa,Trinity,88.45,142.88,81.65,174.63,399.16,Single-ply,SBD,M
Boys,89.81,3,Juan Gonzalez,Cleveland,84.82,142.88,70.31,154.22,367.41,Single-ply,SBD,M
Boys,89.81,4,Carson Smith,Pollok Central,88,113.4,54.43,122.47,290.3,Single-ply,SBD,M
Boys,99.79,1,Kade Elliott,Corrigan-Camden,91.63,215.46,106.59,226.8,548.85,Single-ply,SBD,M
Boys,99.79,2,Sean Crabtree,Trinity,90.04,188.24,142.88,192.78,523.9,Single-ply,SBD,M
Boys,99.79,3,Rodolfo Mayorquin,New Caney,91.17,199.58,124.74,176.9,501.22,Single-ply,SBD,M
Boys,99.79,4,Hunter Smith #5,Trinity,99.79,174.63,102.06,183.7,460.4,Single-ply,SBD,M
Boys,99.79,5,Cole Casper,Corrigan-Camden,92.99,165.56,92.99,181.44,439.98,Single-ply,SBD,M
Boys,99.79,6,Johnny Riles,Cleveland,96.16,151.95,92.99,158.76,403.7,Single-ply,SBD,M
Boys,99.79,7,Isiah Oldham,Livingston,96.62,151.95,70.31,163.29,385.55,Single-ply,SBD,M
Boys,99.79,8,Emilio Cleveland,Trinity,90.72,142.88,88.45,129.27,360.61,Single-ply,SBD,M
Boys,99.79,9,Victor Varos,Cleveland,93.89,142.88,61.23,147.42,351.53,Single-ply,SBD,M
Boys,99.79,10,Mark Losoya,Cleveland,92.53,108.86,92.99,142.88,344.73,Single-ply,SBD,M
Boys,109.77,1,Logan Lofton,New Caney,106.37,170.1,115.67,154.22,439.98,Single-ply,SBD,M
Boys,109.77,2,Elis Caceres,Trinity,108.86,167.83,68.04,179.17,415.04,Single-ply,SBD,M
Boys,109.77,3,Tj Potenza,Cleveland,102.51,124.74,88.45,147.42,360.61,Single-ply,SBD,M
Boys,109.77,DQ,Devorriay Anderson,Trinity,109.77,,,,,Single-ply,SBD,M
Boys,109.77,DQ,Ethan Neal,Pollok Central,105.46,170.1,,,,Single-ply,SBD,M
Boys,124.74,1,Alec Genera,New Caney,121.11,226.8,142.88,181.44,551.11,Single-ply,SBD,M
Boys,124.74,2,Tristan Cuevas,Corrigan-Camden,123.83,204.12,122.47,206.38,532.97,Single-ply,SBD,M
Boys,124.74,3,Orlando Ramirez,Corrigan-Camden,114.76,201.85,86.18,181.44,469.47,Single-ply,SBD,M
Boys,124.74,4,Colton Smith #2,Trinity,119.75,127.01,70.31,147.42,344.73,Single-ply,SBD,M
Boys,124.74,5,Caleb Gann,Livingston,110.68,142.88,70.31,124.74,337.93,Single-ply,SBD,M
Boys,124.74,6,Kyle Bridges,Pollok Central,112.49,113.4,56.7,129.27,299.37,Single-ply,SBD,M
Boys,124.74+,1,Cameron Morris #1,Livingston,142.2,183.7,154.22,197.31,535.24,Single-ply,SBD,M
Boys,124.74+,2,Mathew Aguirre,Cleveland,132.9,201.85,102.06,204.12,508.02,Single-ply,SBD,M
Boys,124.74+,3,Aaron Smith,Corrigan-Camden,151.95,226.8,106.59,142.88,476.27,Single-ply,SBD,M
Boys,,NS,William Cikalo,New Caney,,,,,,Single-ply,SBD,M
Boys,,NS,Xavier Lopez,New Caney,,,,,,Single-ply,SBD,M
