Name,BodyweightKg,WeightClassKg,BirthDate,Division,Squat1Kg,Squat2Kg,Squat3Kg,Best3SquatKg,Bench1Kg,Bench2Kg,Bench3Kg,Best3BenchKg,Deadlift1Kg,Deadlift2Kg,Deadlift3Kg,Best3DeadliftKg,TotalKg,Place,Event,Sex,Equipment
Nada Al Qallaf,46.4,47,,Open,100,106,108,108,57,59,-60.5,59,120,128,130.5,130.5,298,1,SBD,F,Raw
Smitha Thomas,51.1,52,,Open,95,102.5,108,108,52.5,55,-57.5,55,122.5,-131.5,131.5,131.5,294.5,1,SBD,F,Raw
Dania Al Mansi,51.1,52,2003-03-28,Open,87.5,92.5,97.5,97.5,47.5,50,-52.5,50,100,105,110,110,257.5,2,SBD,F,Raw
Narda Franco,50.7,52,,Open,80,85,-90,85,42.5,45,-47.5,45,72.5,85,90,90,220,3,SBD,F,Raw
Rebecca McCaffety,55.8,57,,Open,125,132.5,137.5,137.5,67.5,72.5,75,75,130,142.5,150,150,362.5,1,SBD,F,Raw
Domia Economides,56.4,57,,Open,130,137.5,140,140,76,80.5,-82.5,80.5,120,130,-137.5,130,350.5,2,SBD,F,Raw
Eliza Mason,56.3,57,,Open,87.5,95,100,100,52.5,55,57.5,57.5,-100,112.5,-120,112.5,270,3,SBD,F,Raw
Maryam Mansouri,57,57,,Open,87.5,-90,-90,87.5,40,-42.5,-45,40,97.5,105,-107.5,105,232.5,4,SBD,F,Raw
Win Eaindra Aung,55.1,57,,Open,75,-80,82.5,82.5,45,47.5,-50,47.5,85,87.5,-92.5,87.5,217.5,5,SBD,F,Raw
Chuanmei Yang,62.5,63,,Open,120,130,135,135,67.5,-72.5,-72.5,67.5,145,162.5,172.5,172.5,375,1,SBD,F,Raw
Natalie Maw,62,63,1998-03-25,Open,105,112.5,120,120,65,67.5,-70,67.5,125,135,140,140,327.5,2,SBD,F,Raw
Daria Burtseva,62.5,63,,Open,87.5,95,-100,95,57.5,62.5,-65,62.5,95,105,107.5,107.5,265,3,SBD,F,Raw
Angelica Yassine,67.3,69,,Open,132.5,142.5,-150.5,142.5,67.5,72.5,75,75,150,162.5,170.5,170.5,388,1,SBD,F,Raw
Olga Kravchenko,68.9,69,,Open,125,132.5,-140,132.5,65,70,72.5,72.5,130,142.5,150,150,355,2,SBD,F,Raw
Sofia Ghazali,74.1,76,,Open,125,135,140,140,-80,85,-90,85,-155,167.5,-175,167.5,392.5,1,SBD,F,Raw
Mona Ayyash,71.4,76,,Open,90,95,100,100,37.5,40,-42.5,40,97.5,105,110,110,250,2,SBD,F,Raw
Astrid Oduneye-Braniff,75.1,76,,Open,-150,150,-165.5,150,-77.5,-82.5,-82.5,,-175,-175,-175,,,DQ,SBD,F,Raw
Aishwarya Ramakrishnan,80.8,84,,Open,-142.5,142.5,147.5,147.5,60,65,-67.5,65,155,170,177.5,177.5,390,1,SBD,F,Raw
Natasha Manning,80.8,84,,Open,120,-130,135,135,65,70,72.5,72.5,135,150,165,165,372.5,2,SBD,F,Raw
Laura Nulty,87.5,84+,,Open,120,127.5,-135,127.5,65,70,72.5,72.5,125,145,152.5,152.5,352.5,1,SBD,F,Raw
Alison Keogh,90.2,84+,,Open,80,90,-100,90,45,47.5,50,50,90,-110,-110,90,230,2,SBD,F,Raw
Yaman Makhlouf,111.2,84+,,Open,145,150,-157.5,150,-60,-60,-60,,170,175,180,180,,DQ,SBD,F,Raw
Ali Naqi,57.8,59,,Open,150,-157.5,-157.5,150,90,-97.5,-97.5,90,185,195,205,205,445,1,SBD,M,Raw
Jesus Tolentino Jr,64.6,66,,Open,172.5,182.5,-190.5,182.5,112.5,120,123.5,123.5,-215,230,-232.5,230,536,1,SBD,M,Raw
Melvin Caparino,65,66,,Open,125,130,140,140,-85,90,-95,90,190,-200,205,205,435,2,SBD,M,Raw
Humam Khaled,65.8,66,,Open,125,132.5,-140,132.5,87.5,95,-97.5,95,165,177.5,-195,177.5,405,3,SBD,M,Raw
Ahmed AlRiyami,64.1,66,,Open,-130,135,-137.5,135,75,80,-90,80,150,157.5,162.5,162.5,377.5,4,SBD,M,Raw
Mark Farag,62.1,66,,Open,115,125,130,130,62.5,-67.5,-67.5,62.5,117.5,125,130,130,322.5,5,SBD,M,Raw
Joshua Fijo,62.3,66,,Open,55,60,62.5,62.5,35,40,42.5,42.5,72.5,75,80,80,185,6,SBD,M,Raw
Hussain Almosawi,73.2,74,,Open,175,-190,-190,175,112.5,117.5,120,120,-220,230,242.5,242.5,537.5,1,SBD,M,Raw
Faisal Alfawzani,73.5,74,,Open,172.5,185,195,195,115,125,-127.5,125,207.5,217.5,-235,217.5,537.5,2,SBD,M,Raw
Fahad Alali,72.9,74,,Open,185,192.5,-197.5,192.5,105,-110,-110,105,207.5,212.5,220,220,517.5,3,SBD,M,Raw
Abdelrahman Tolba,70,74,,Open,160,170,180,180,107.5,-115,-115,107.5,195,205,212.5,212.5,500,4,SBD,M,Raw
Adnan Hamade,71.8,74,,Open,160,165,167.5,167.5,110,117.5,120,120,187.5,197.5,205,205,492.5,5,SBD,M,Raw
Aaron Ramos,72.1,74,,Open,140,150,-152.5,150,100,110,-112.5,110,180,190,-210,190,450,6,SBD,M,Raw
Matthew Henry #3,83,83,,Open,202.5,220,230,230,-125,125,130,130,230,250,260,260,620,1,SBD,M,Raw
Robbie Ramos,80.3,83,,Open,195,210,215,215,120,130,135,135,210,220,230,230,580,2,SBD,M,Raw
Dominic Chaftari,82.3,83,,Open,190,197.5,205,205,137.5,-145,-145,137.5,210,220,-230,220,562.5,3,SBD,M,Raw
Bader Alefari,82.2,83,,Open,175,182.5,190,190,102.5,110,117.5,117.5,202.5,220,230,230,537.5,4,SBD,M,Raw
Thierry Daoud,82.6,83,,Open,177.5,185,-190,185,132.5,-135,-135,132.5,200,210,215,215,532.5,5,SBD,M,Raw
Ye Htet Aung,81.7,83,,Open,-175,175,182.5,182.5,105,110,-115,110,195,210,220,220,512.5,6,SBD,M,Raw
Rohith Pisharath,81,83,,Open,150,160,-170,160,90,-100,-100,90,200,-215,215,215,465,7,SBD,M,Raw
Aly Aly,81.7,83,,Open,-147.5,147.5,150,150,-95,95,-100,95,177.5,185,200,200,445,8,SBD,M,Raw
Phani Gutta,77.8,83,,Open,125,130,137.5,137.5,100,105,110,110,170,177.5,185,185,432.5,9,SBD,M,Raw
Stephen Vineburg,81.4,83,,Open,100,110,-120,110,90,-95,-95,90,120,130,140,140,340,10,SBD,M,Raw
Rahul Lakhani,78.9,83,,Open,130,135,-142.5,135,-90,-90,-90,,150,162.5,172.5,172.5,,DQ,SBD,M,Raw
Moustapha El Haffar,82.1,83,,Open,170,175,177.5,177.5,-125,125,-127.5,125,-210,-210,-210,,,DQ,SBD,M,Raw
Tarek El Assi,92.4,93,,Open,222.5,235,245,245,125,132.5,-137.5,132.5,280,300,307.5,307.5,685,1,SBD,M,Raw
Sayed Hadi Al Sharaf,91.6,93,,Open,202.5,215,222.5,222.5,140,145,-150,145,280,300,310,310,677.5,2,SBD,M,Raw
Ayoub AlAyoub,89.3,93,,Open,205,215,217.5,217.5,150,155,160,160,240,252.5,260,260,637.5,3,SBD,M,Raw
Matthew Levine,89.9,93,,Open,195,207.5,212.5,212.5,150,160,165,165,210,230,240,240,617.5,4,SBD,M,Raw
Medhat Abouzeid,92.4,93,,Open,-180,-187.5,192.5,192.5,130,-135,-135,130,220,230,-240,230,552.5,5,SBD,M,Raw
Charles Smith,90.2,93,,Open,165,180,190,190,107.5,115,120,120,180,205,220,220,530,6,SBD,M,Raw
Mohammed Waleed,91.4,93,,Open,-175,175,180,180,107.5,-112.5,112.5,112.5,215,225,235,235,527.5,7,SBD,M,Raw
Alexander Ross,92.3,93,,Open,162.5,172.5,180,180,117.5,125,-130,125,192.5,210,220,220,525,8,SBD,M,Raw
Hamad Al Hosani,92.6,93,,Open,-185,-185,185,185,122.5,-127.5,-127.5,122.5,185,195,210,210,517.5,9,SBD,M,Raw
Hugo Henriques,90.6,93,,Open,165,172.5,180,180,105,110,115,115,190,205,215,215,510,10,SBD,M,Raw
Soud Alothman,87,93,,Open,140,150,-160,150,95,100,-102.5,100,200,215,222.5,222.5,472.5,11,SBD,M,Raw
Ethan Lee,85.9,93,,Open,140,150,157.5,157.5,92.5,-97.5,97.5,97.5,185,200,-215,200,455,12,SBD,M,Raw
Mohammad Eid,92.4,93,,Open,130,142.5,152.5,152.5,90,95,-102.5,95,180,190,202.5,202.5,450,13,SBD,M,Raw
Momin Reza,92.2,93,2008-05-10,Open,140,152.5,157.5,157.5,80,-85,-85,80,-195,202.5,207.5,207.5,445,14,SBD,M,Raw
Rasheed Gharaibeh,88.3,93,2004-01-18,Open,145,152.5,155,155,85,-92.5,-92.5,85,165,185,-190,185,425,15,SBD,M,Raw
Mostafa Hazem,103,105,,Open,222.5,232.5,237.5,237.5,185,192.5,197.5,197.5,275,300,310.5,310.5,745.5,1,SBD,M,Raw
John Endoso,103.7,105,2005-07-03,Open,242.5,255,265,265,-137.5,142.5,-155,142.5,232.5,247.5,260,260,667.5,2,SBD,M,Raw
David Zabinsky,98.8,105,,Open,210,225,-235,225,125,130,-135,130,275,-290,-290,275,630,3,SBD,M,Raw
Raju Pal,99.5,105,1984-01-02,Open,200,-212.5,212.5,212.5,120,127.5,132.5,132.5,240,260,-272.5,260,605,4,SBD,M,Raw
Charif Rabah,101,105,,Open,175,180,187.5,187.5,135,145,150,150,202.5,212.5,-215,212.5,550,5,SBD,M,Raw
Safwan Al Turk,94.3,105,,Open,135,140,145,145,95,100,-102.5,100,185,200,210,210,455,6,SBD,M,Raw
Rounok Islam,101.9,105,,Open,125,132.5,-140,132.5,-95,95,-100,95,135,142.5,152.5,152.5,380,7,SBD,M,Raw
Naser Ali Alwardi,118.8,120,,Open,270,290,-305,290,185,192.5,-200,192.5,270,-290,-300,270,752.5,1,SBD,M,Raw
Hamad Belobaida,118.3,120,2001-02-13,Open,132.5,-142.5,-142.5,132.5,82.5,-92.5,92.5,92.5,185,200,217.5,217.5,442.5,2,SBD,M,Raw
Seif Noury,116.4,120,,Open,120,127.5,132.5,132.5,102.5,107.5,-112.5,107.5,190,195,200,200,440,3,SBD,M,Raw
Yahia Ali,116.1,120,,Open,65,72.5,77.5,77.5,65,72.5,77.5,77.5,100,117.5,135,135,290,4,SBD,M,Raw
James Hetherington #2,133.6,120+,,Open,305,325,340,340,155,165,-172.5,165,305,325,335.5,335.5,840.5,1,SBD,M,Raw
